Exploratory Data Analysis Project
…
High income

23,954.48

19.32

16.7

5.8

fulldata2 %>% group_by(country) %>% filter(year == "2014", region == 
    "Sub-Saharan Africa") %>% select(-iso2c, -iso3c, -region) %>% 
    arrange(desc(life_expect))

## # A tibble: 43 x 9
## # Groups:   country [43]
##    country income year  gdp_percap life_expect population birth_rate
##    <fct>   <fct>  <chr>      <dbl>       <dbl>      <dbl>      <dbl>
##  1 Maurit… Upper… 2014      19231.        74.2    1260934       10.6
##  2 Seyche… Upper… 2014      26566.        73.2      91359       17  
##  3 Senegal Lower… 2014       2337.        66.4   14546111       36.8
##  4 Sao To… Lower… 2014       3057.        66.4     191266       34.8
##  5 Kenya   Low i… 2014       2900.        66.2   46024250       32.3
##  6 Rwanda  Low i… 2014       1702.        66.2   11345357       32.5
##  7 Gabon   Upper… 2014      17570.        65.2    1875713       30.6
##  8 Madaga… Low i… 2014       1445.        65.1   23589801       33.7
##  9 Botswa… Upper… 2014      16765.        64.8    2168573       24.5
## 10 Ethiop… Low i… 2014       1501.        64.5   97366774       32.8
## # … with 33 more rows, and 2 more variables: neonat_mortal_rate <dbl>,
## #   co2_percap <dbl>
…
